{
  "Persons": [
    {
      "id": 1,
      "name": "Иван",
      "surname": "Иванов",
      "phone": "9270740374"
    },
    {
      "id": 2,
      "name": "Николай",
      "surname": "Сидоров",
      "phone": "9270740374"
    },
    {
      "id": 3,
      "name": "Александр",
      "surname": "Петров",
      "phone": "9270740374"
    },
    {
      "id": 4,
      "name": "Олег",
      "surname": "Белоj",
      "phone": "9270740374"
    },
    {
      "id": 6,
      "name": "kkkq",
      "surname": "gggg",
      "phone": "+7(444) 444 44 44"
    }
  ]
}